…
To select columns of a
data frame, use `select()`. The first argument to this function is the data
frame (`variants`), and the subsequent arguments are the columns to keep.


~~~
select(variants, sample_id, REF, ALT, DP)
~~~
{: .language-r}



~~~
# A tibble: 801 x 4
   sample_id  REF                  ALT                                   DP
   <chr>      <chr>                <chr>                              <dbl>
 1 SRR2584863 T                    G                                      4
 2 SRR2584863 G                    T                                      6
 3 SRR2584863 G                    T                                     10
 4 SRR2584863 CTTTTTTT             CTTTTTTTT                             12
 5 SRR2584863 CCGC                 CCGCGC                                10
 6 SRR2584863 C                    T                                     10
 7 SRR2584863 C                    A                                      8
 8 SRR2584863 G                    A                                     11
 9 SRR2584863 ACAGCCAGCCAGCCAGCCA… ACAGCCAGCCAGCCAGCCAGCCAGCCAGCCAGC…     3
10 SRR2584863 AT                   ATT                                    7
# … with 791 more rows
…
To select all columns *except* certain ones, put a "-" in front of
the variable to exclude it.


~~~
select(variants, -CHROM)
~~~
{: .language-r}



~~~
# A tibble: 801 x 28
   sample_id    POS ID    REF   ALT    QUAL FILTER INDEL   IDV    IMF    DP
   <chr>      <dbl> <lgl> <chr> <chr> <dbl> <lgl>  <lgl> <dbl>  <dbl> <dbl>
 1 SRR25848… 9.97e3 NA    T     G        91 NA     FALSE    NA NA         4
 2 SRR25848… 2.63e5 NA    G     T        85 NA     FALSE    NA NA         6
 3 SRR25848… 2.82e5 NA    G     T       217 NA     FALSE    NA NA        10
 4 SRR25848… 4.33e5 NA    CTTT… CTTT…    64 NA     TRUE     12  1        12
 5 SRR25848… 4.74e5 NA    CCGC  CCGC…   228 NA     TRUE      9  0.9      10
 6 SRR25848… 6.49e5 NA    C     T       210 NA     FALSE    NA NA        10
 7 SRR25848… 1.33e6 NA    C     A       178 NA     FALSE    NA NA         8
 8 SRR25848… 1.73e6 NA    G     A       225 NA     FALSE    NA NA        11
 9 SRR25848… 2.10e6 NA    ACAG… ACAG…    56 NA     TRUE      2  0.667     3
10 SRR25848… 2.33e6 NA    AT    ATT     167 NA     TRUE      7  1         7
# … with 791 more rows, and 17 more variables: VDB <dbl>, RPB <dbl>,
#   MQB <dbl>, BQB <dbl>, MQSB <dbl>, SGB <dbl>, MQ0F <dbl>, ICB <lgl>,
#   HOB <lgl>, AC <dbl>, AN <dbl>, DP4 <chr>, MQ <dbl>, Indiv <chr>,
#   gt_PL <dbl>, gt_GT <dbl>, gt_GT_alleles <chr>
~~~
{: .output}

`dplyr` also provides useful functions to select columns based on their names. For instance, `ends_with()` allows you to select columns that ends with specific letters. For instance, if you wanted to select columns that end with the letter "B":


~~~
select(variants, ends_with("B"))
~~~
{: .language-r}



~~~
# A tibble: 801 x 8
      VDB   RPB   MQB   BQB   MQSB    SGB ICB   HOB  
    <dbl> <dbl> <dbl> <dbl>  <dbl>  <dbl> <lgl> <lgl>
 1 0.0257    NA    NA    NA NA     -0.556 NA    NA   
 2 0.0961     1     1     1 NA     -0.591 NA    NA   
 3 0.774     NA    NA    NA  0.975 -0.662 NA    NA   
 4 0.478     NA    NA    NA  1     -0.676 NA    NA   
 5 0.660     NA    NA    NA  0.916 -0.662 NA    NA   
 6 0.268     NA    NA    NA  0.916 -0.670 NA    NA   
 7 0.624     NA    NA    NA  0.901 -0.651 NA    NA   
 8 0.992     NA    NA    NA  1.01  -0.670 NA    NA   
 9 0.902     NA    NA    NA  1     -0.454 NA    NA   
10 0.568     NA    NA    NA  1.01  -0.617 NA    NA   
# … with 791 more rows
…
> the columns "Indiv" and "FILTER", and the column "POS". Hint: look at the help
> for the function `ends_with()` we've just covered.
>
>> ## Solution
>> 
>> 
>> ~~~
>> select(variants, contains("i"), -Indiv, -FILTER, POS)
>> ~~~
>> {: .language-r}
>> 
>> 
>> 
>> ~~~
>> # A tibble: 801 x 7
>>    sample_id  ID    INDEL   IDV    IMF ICB       POS
>>    <chr>      <lgl> <lgl> <dbl>  <dbl> <lgl>   <dbl>
>>  1 SRR2584863 NA    FALSE    NA NA     NA       9972
>>  2 SRR2584863 NA    FALSE    NA NA     NA     263235
>>  3 SRR2584863 NA    FALSE    NA NA     NA     281923
>>  4 SRR2584863 NA    TRUE     12  1     NA     433359
>>  5 SRR2584863 NA    TRUE      9  0.9   NA     473901
>>  6 SRR2584863 NA    FALSE    NA NA     NA     648692
>>  7 SRR2584863 NA    FALSE    NA NA     NA    1331794
>>  8 SRR2584863 NA    FALSE    NA NA     NA    1733343
>>  9 SRR2584863 NA    TRUE      2  0.667 NA    2103887
>> 10 SRR2584863 NA    TRUE      7  1     NA    2333538
>> # … with 791 more rows
…
To choose rows, we can use `filter()`. For instance, to keep the rows for the sample `SRR2584863`:


~~~
filter(variants, sample_id == "SRR2584863")
~~~
{: .language-r}



~~~
# A tibble: 25 x 29
   sample_id CHROM    POS ID    REF   ALT    QUAL FILTER INDEL   IDV    IMF
   <chr>     <chr>  <dbl> <lgl> <chr> <chr> <dbl> <lgl>  <lgl> <dbl>  <dbl>
 1 SRR25848… CP00… 9.97e3 NA    T     G        91 NA     FALSE    NA NA    
 2 SRR25848… CP00… 2.63e5 NA    G     T        85 NA     FALSE    NA NA    
 3 SRR25848… CP00… 2.82e5 NA    G     T       217 NA     FALSE    NA NA    
 4 SRR25848… CP00… 4.33e5 NA    CTTT… CTTT…    64 NA     TRUE     12  1    
 5 SRR25848… CP00… 4.74e5 NA    CCGC  CCGC…   228 NA     TRUE      9  0.9  
 6 SRR25848… CP00… 6.49e5 NA    C     T       210 NA     FALSE    NA NA    
 7 SRR25848… CP00… 1.33e6 NA    C     A       178 NA     FALSE    NA NA    
 8 SRR25848… CP00… 1.73e6 NA    G     A       225 NA     FALSE    NA NA    
 9 SRR25848… CP00… 2.10e6 NA    ACAG… ACAG…    56 NA     TRUE      2  0.667
10 SRR25848… CP00… 2.33e6 NA    AT    ATT     167 NA     TRUE      7  1    
# … with 15 more rows, and 18 more variables: DP <dbl>, VDB <dbl>,
#   RPB <dbl>, MQB <dbl>, BQB <dbl>, MQSB <dbl>, SGB <dbl>, MQ0F <dbl>,
#   ICB <lgl>, HOB <lgl>, AC <dbl>, AN <dbl>, DP4 <chr>, MQ <dbl>,
#   Indiv <chr>, gt_PL <dbl>, gt_GT <dbl>, gt_GT_alleles <chr>
…
`filter()` will keep all the rows that match the conditions that are provided. Here are a few examples:


~~~
## rows for which the reference genome has T or G 
filter(variants, REF %in% c("T", "G"))
~~~
{: .language-r}



~~~
# A tibble: 340 x 29
   sample_id CHROM    POS ID    REF   ALT    QUAL FILTER INDEL   IDV   IMF
   <chr>     <chr>  <dbl> <lgl> <chr> <chr> <dbl> <lgl>  <lgl> <dbl> <dbl>
 1 SRR25848… CP00… 9.97e3 NA    T     G      91   NA     FALSE    NA    NA
 2 SRR25848… CP00… 2.63e5 NA    G     T      85   NA     FALSE    NA    NA
 3 SRR25848… CP00… 2.82e5 NA    G     T     217   NA     FALSE    NA    NA
 4 SRR25848… CP00… 1.73e6 NA    G     A     225   NA     FALSE    NA    NA
 5 SRR25848… CP00… 2.62e6 NA    G     T      31.9 NA     FALSE    NA    NA
 6 SRR25848… CP00… 3.00e6 NA    G     A     225   NA     FALSE    NA    NA
 7 SRR25848… CP00… 3.91e6 NA    G     T     225   NA     FALSE    NA    NA
 8 SRR25848… CP00… 9.97e3 NA    T     G     214   NA     FALSE    NA    NA
 9 SRR25848… CP00… 1.06e4 NA    G     A     225   NA     FALSE    NA    NA
10 SRR25848… CP00… 6.40e4 NA    G     A     225   NA     FALSE    NA    NA
# … with 330 more rows, and 18 more variables: DP <dbl>, VDB <dbl>,
#   RPB <dbl>, MQB <dbl>, BQB <dbl>, MQSB <dbl>, SGB <dbl>, MQ0F <dbl>,
#   ICB <lgl>, HOB <lgl>, AC <dbl>, AN <dbl>, DP4 <chr>, MQ <dbl>,
#   Indiv <chr>, gt_PL <dbl>, gt_GT <dbl>, gt_GT_alleles <chr>
~~~
{: .output}



~~~
## rows with QUAL values greater than or equal to 100
filter(variants, QUAL >= 100)
~~~
{: .language-r}



~~~
# A tibble: 666 x 29
   sample_id CHROM    POS ID    REF   ALT    QUAL FILTER INDEL   IDV   IMF
   <chr>     <chr>  <dbl> <lgl> <chr> <chr> <dbl> <lgl>  <lgl> <dbl> <dbl>
 1 SRR25848… CP00… 2.82e5 NA    G     T       217 NA     FALSE    NA  NA  
 2 SRR25848… CP00… 4.74e5 NA    CCGC  CCGC…   228 NA     TRUE      9   0.9
 3 SRR25848… CP00… 6.49e5 NA    C     T       210 NA     FALSE    NA  NA  
 4 SRR25848… CP00… 1.33e6 NA    C     A       178 NA     FALSE    NA  NA  
 5 SRR25848… CP00… 1.73e6 NA    G     A       225 NA     FALSE    NA  NA  
 6 SRR25848… CP00… 2.33e6 NA    AT    ATT     167 NA     TRUE      7   1  
 7 SRR25848… CP00… 2.41e6 NA    A     C       104 NA     FALSE    NA  NA  
 8 SRR25848… CP00… 2.45e6 NA    A     C       225 NA     FALSE    NA  NA  
 9 SRR25848… CP00… 2.67e6 NA    A     T       225 NA     FALSE    NA  NA  
10 SRR25848… CP00… 3.00e6 NA    G     A       225 NA     FALSE    NA  NA  
# … with 656 more rows, and 18 more variables: DP <dbl>, VDB <dbl>,
#   RPB <dbl>, MQB <dbl>, BQB <dbl>, MQSB <dbl>, SGB <dbl>, MQ0F <dbl>,
#   ICB <lgl>, HOB <lgl>, AC <dbl>, AN <dbl>, DP4 <chr>, MQ <dbl>,
#   Indiv <chr>, gt_PL <dbl>, gt_GT <dbl>, gt_GT_alleles <chr>
~~~
{: .output}



~~~
## rows that have TRUE in the column INDEL
filter(variants, INDEL)
~~~
{: .language-r}



~~~
# A tibble: 101 x 29
   sample_id CHROM    POS ID    REF   ALT    QUAL FILTER INDEL   IDV   IMF
   <chr>     <chr>  <dbl> <lgl> <chr> <chr> <dbl> <lgl>  <lgl> <dbl> <dbl>
 1 SRR25848… CP00… 4.33e5 NA    CTTT… CTTT…  64   NA     TRUE     12 1    
 2 SRR25848… CP00… 4.74e5 NA    CCGC  CCGC… 228   NA     TRUE      9 0.9  
 3 SRR25848… CP00… 2.10e6 NA    ACAG… ACAG…  56   NA     TRUE      2 0.667
 4 SRR25848… CP00… 2.33e6 NA    AT    ATT   167   NA     TRUE      7 1    
 5 SRR25848… CP00… 3.90e6 NA    A     AC     43.4 NA     TRUE      2 1    
 6 SRR25848… CP00… 4.43e6 NA    TGG   T     228   NA     TRUE     10 1    
 7 SRR25848… CP00… 1.48e5 NA    AGGGG AGGG… 122   NA     TRUE      8 1    
 8 SRR25848… CP00… 1.58e5 NA    GTTT… GTTT…  19.5 NA     TRUE      6 1    
 9 SRR25848… CP00… 1.73e5 NA    CAA   CA    180   NA     TRUE     11 1    
10 SRR25848… CP00… 1.75e5 NA    GAA   GA    194   NA     TRUE     10 1    
# … with 91 more rows, and 18 more variables: DP <dbl>, VDB <dbl>,
#   RPB <dbl>, MQB <dbl>, BQB <dbl>, MQSB <dbl>, SGB <dbl>, MQ0F <dbl>,
#   ICB <lgl>, HOB <lgl>, AC <dbl>, AN <dbl>, DP4 <chr>, MQ <dbl>,
#   Indiv <chr>, gt_PL <dbl>, gt_GT <dbl>, gt_GT_alleles <chr>
~~~
{: .output}



~~~
## rows that don't have missing data in the IDV column
filter(variants, !is.na(IDV))
~~~
{: .language-r}



~~~
# A tibble: 101 x 29
   sample_id CHROM    POS ID    REF   ALT    QUAL FILTER INDEL   IDV   IMF
   <chr>     <chr>  <dbl> <lgl> <chr> <chr> <dbl> <lgl>  <lgl> <dbl> <dbl>
 1 SRR25848… CP00… 4.33e5 NA    CTTT… CTTT…  64   NA     TRUE     12 1    
 2 SRR25848… CP00… 4.74e5 NA    CCGC  CCGC… 228   NA     TRUE      9 0.9  
 3 SRR25848… CP00… 2.10e6 NA    ACAG… ACAG…  56   NA     TRUE      2 0.667
 4 SRR25848… CP00… 2.33e6 NA    AT    ATT   167   NA     TRUE      7 1    
 5 SRR25848… CP00… 3.90e6 NA    A     AC     43.4 NA     TRUE      2 1    
 6 SRR25848… CP00… 4.43e6 NA    TGG   T     228   NA     TRUE     10 1    
 7 SRR25848… CP00… 1.48e5 NA    AGGGG AGGG… 122   NA     TRUE      8 1    
 8 SRR25848… CP00… 1.58e5 NA    GTTT… GTTT…  19.5 NA     TRUE      6 1    
 9 SRR25848… CP00… 1.73e5 NA    CAA   CA    180   NA     TRUE     11 1    
10 SRR25848… CP00… 1.75e5 NA    GAA   GA    194   NA     TRUE     10 1    
# … with 91 more rows, and 18 more variables: DP <dbl>, VDB <dbl>,
#   RPB <dbl>, MQB <dbl>, BQB <dbl>, MQSB <dbl>, SGB <dbl>, MQ0F <dbl>,
#   ICB <lgl>, HOB <lgl>, AC <dbl>, AN <dbl>, DP4 <chr>, MQ <dbl>,
#   Indiv <chr>, gt_PL <dbl>, gt_GT <dbl>, gt_GT_alleles <chr>
…
~~~
## using `|` logical operator
filter(variants, sample_id == "SRR2584863", (INDEL | QUAL >= 100))
~~~
{: .language-r}



~~~
# A tibble: 22 x 29
   sample_id CHROM    POS ID    REF   ALT    QUAL FILTER INDEL   IDV    IMF
   <chr>     <chr>  <dbl> <lgl> <chr> <chr> <dbl> <lgl>  <lgl> <dbl>  <dbl>
 1 SRR25848… CP00… 2.82e5 NA    G     T       217 NA     FALSE    NA NA    
 2 SRR25848… CP00… 4.33e5 NA    CTTT… CTTT…    64 NA     TRUE     12  1    
 3 SRR25848… CP00… 4.74e5 NA    CCGC  CCGC…   228 NA     TRUE      9  0.9  
 4 SRR25848… CP00… 6.49e5 NA    C     T       210 NA     FALSE    NA NA    
 5 SRR25848… CP00… 1.33e6 NA    C     A       178 NA     FALSE    NA NA    
 6 SRR25848… CP00… 1.73e6 NA    G     A       225 NA     FALSE    NA NA    
 7 SRR25848… CP00… 2.10e6 NA    ACAG… ACAG…    56 NA     TRUE      2  0.667
 8 SRR25848… CP00… 2.33e6 NA    AT    ATT     167 NA     TRUE      7  1    
 9 SRR25848… CP00… 2.41e6 NA    A     C       104 NA     FALSE    NA NA    
10 SRR25848… CP00… 2.45e6 NA    A     C       225 NA     FALSE    NA NA    
# … with 12 more rows, and 18 more variables: DP <dbl>, VDB <dbl>,
#   RPB <dbl>, MQB <dbl>, BQB <dbl>, MQSB <dbl>, SGB <dbl>, MQ0F <dbl>,
#   ICB <lgl>, HOB <lgl>, AC <dbl>, AN <dbl>, DP4 <chr>, MQ <dbl>,
#   Indiv <chr>, gt_PL <dbl>, gt_GT <dbl>, gt_GT_alleles <chr>
…
> Select all the mutations that occurred between the positions 1e6 (one million)
> and 2e6 (included) that are not indels and have QUAL greater than 200.
>
>> ## Solution
>> 
>> 
>> ~~~
>> filter(variants, POS >= 1e6 & POS <= 2e6, !INDEL, QUAL > 200)
>> ~~~
>> {: .language-r}
>> 
>> 
>> 
>> ~~~
>> # A tibble: 77 x 29
>>    sample_id CHROM    POS ID    REF   ALT    QUAL FILTER INDEL   IDV   IMF
>>    <chr>     <chr>  <dbl> <lgl> <chr> <chr> <dbl> <lgl>  <lgl> <dbl> <dbl>
>>  1 SRR25848… CP00… 1.73e6 NA    G     A       225 NA     FALSE    NA    NA
>>  2 SRR25848… CP00… 1.00e6 NA    A     G       225 NA     FALSE    NA    NA
>>  3 SRR25848… CP00… 1.02e6 NA    A     G       225 NA     FALSE    NA    NA
>>  4 SRR25848… CP00… 1.06e6 NA    C     T       225 NA     FALSE    NA    NA
>>  5 SRR25848… CP00… 1.06e6 NA    A     G       206 NA     FALSE    NA    NA
>>  6 SRR25848… CP00… 1.07e6 NA    G     T       225 NA     FALSE    NA    NA
>>  7 SRR25848… CP00… 1.07e6 NA    T     C       225 NA     FALSE    NA    NA
>>  8 SRR25848… CP00… 1.10e6 NA    C     T       225 NA     FALSE    NA    NA
>>  9 SRR25848… CP00… 1.11e6 NA    C     T       212 NA     FALSE    NA    NA
>> 10 SRR25848… CP00… 1.11e6 NA    A     G       225 NA     FALSE    NA    NA
>> # … with 67 more rows, and 18 more variables: DP <dbl>, VDB <dbl>,
>> #   RPB <dbl>, MQB <dbl>, BQB <dbl>, MQSB <dbl>, SGB <dbl>, MQ0F <dbl>,
>> #   ICB <lgl>, HOB <lgl>, AC <dbl>, AN <dbl>, DP4 <chr>, MQ <dbl>,
>> #   Indiv <chr>, gt_PL <dbl>, gt_GT <dbl>, gt_GT_alleles <chr>
…
~~~
variants %>%
  filter(sample_id == "SRR2584863") %>%
  select(REF, ALT, DP)
~~~
{: .language-r}



~~~
# A tibble: 25 x 3
   REF                       ALT                                         DP
   <chr>                     <chr>                                    <dbl>
 1 T                         G                                            4
 2 G                         T                                            6
 3 G                         T                                           10
 4 CTTTTTTT                  CTTTTTTTT                                   12
 5 CCGC                      CCGCGC                                      10
 6 C                         T                                           10
 7 C                         A                                            8
 8 G                         A                                           11
 9 ACAGCCAGCCAGCCAGCCAGCCAG… ACAGCCAGCCAGCCAGCCAGCCAGCCAGCCAGCCAGCCA…     3
10 AT                        ATT                                          7
# … with 15 more rows
…
This new object includes all of the data from this sample. Let's look at it to confirm it's what we want:


~~~
SRR2584863_variants
~~~
{: .language-r}



~~~
# A tibble: 25 x 3
   REF                       ALT                                         DP
   <chr>                     <chr>                                    <dbl>
 1 T                         G                                            4
 2 G                         T                                            6
 3 G                         T                                           10
 4 CTTTTTTT                  CTTTTTTTT                                   12
 5 CCGC                      CCGCGC                                      10
 6 C                         T                                           10
 7 C                         A                                            8
 8 G                         A                                           11
 9 ACAGCCAGCCAGCCAGCCAGCCAG… ACAGCCAGCCAGCCAGCCAGCCAGCCAGCCAGCCAGCCA…     3
10 AT                        ATT                                          7
# … with 15 more rows
…
Let's add a column (`POLPROB`) to our `variants` dataframe that shows 
the probability of a polymorphism at that site given the data. We'll show 
only the first six rows of data.


~~~
variants %>%
  mutate(POLPROB = 1 - (10 ^ -(QUAL/10)))
~~~
{: .language-r}



~~~
# A tibble: 801 x 30
   sample_id CHROM    POS ID    REF   ALT    QUAL FILTER INDEL   IDV    IMF
   <chr>     <chr>  <dbl> <lgl> <chr> <chr> <dbl> <lgl>  <lgl> <dbl>  <dbl>
 1 SRR25848… CP00… 9.97e3 NA    T     G        91 NA     FALSE    NA NA    
 2 SRR25848… CP00… 2.63e5 NA    G     T        85 NA     FALSE    NA NA    
 3 SRR25848… CP00… 2.82e5 NA    G     T       217 NA     FALSE    NA NA    
 4 SRR25848… CP00… 4.33e5 NA    CTTT… CTTT…    64 NA     TRUE     12  1    
 5 SRR25848… CP00… 4.74e5 NA    CCGC  CCGC…   228 NA     TRUE      9  0.9  
 6 SRR25848… CP00… 6.49e5 NA    C     T       210 NA     FALSE    NA NA    
 7 SRR25848… CP00… 1.33e6 NA    C     A       178 NA     FALSE    NA NA    
 8 SRR25848… CP00… 1.73e6 NA    G     A       225 NA     FALSE    NA NA    
 9 SRR25848… CP00… 2.10e6 NA    ACAG… ACAG…    56 NA     TRUE      2  0.667
10 SRR25848… CP00… 2.33e6 NA    AT    ATT     167 NA     TRUE      7  1    
# … with 791 more rows, and 19 more variables: DP <dbl>, VDB <dbl>,
#   RPB <dbl>, MQB <dbl>, BQB <dbl>, MQSB <dbl>, SGB <dbl>, MQ0F <dbl>,
#   ICB <lgl>, HOB <lgl>, AC <dbl>, AN <dbl>, DP4 <chr>, MQ <dbl>,
#   Indiv <chr>, gt_PL <dbl>, gt_GT <dbl>, gt_GT_alleles <chr>,
#   POLPROB <dbl>
…
> 
>> ## Solution
>> 
>> 
>> ~~~
>> variants %>%
>>  mutate(POLPROB = 1 - 10 ^ -(QUAL/10)) %>%
>>  select(sample_id, POS, QUAL, POLPROB)
>> ~~~
>> {: .language-r}
>> 
>> 
>> 
>> ~~~
>> # A tibble: 801 x 4
>>    sample_id      POS  QUAL POLPROB
>>    <chr>        <dbl> <dbl>   <dbl>
>>  1 SRR2584863    9972    91   1.000
>>  2 SRR2584863  263235    85   1.000
>>  3 SRR2584863  281923   217   1    
>>  4 SRR2584863  433359    64   1.000
>>  5 SRR2584863  473901   228   1    
>>  6 SRR2584863  648692   210   1    
>>  7 SRR2584863 1331794   178   1    
>>  8 SRR2584863 1733343   225   1    
>>  9 SRR2584863 2103887    56   1.000
>> 10 SRR2584863 2333538   167   1    
>> # … with 791 more rows
…
~~~
variants %>%
  mutate(indel_size = nchar(ALT) - nchar(REF))
~~~
{: .language-r}



~~~
# A tibble: 801 x 30
   sample_id CHROM    POS ID    REF   ALT    QUAL FILTER INDEL   IDV    IMF
   <chr>     <chr>  <dbl> <lgl> <chr> <chr> <dbl> <lgl>  <lgl> <dbl>  <dbl>
 1 SRR25848… CP00… 9.97e3 NA    T     G        91 NA     FALSE    NA NA    
 2 SRR25848… CP00… 2.63e5 NA    G     T        85 NA     FALSE    NA NA    
 3 SRR25848… CP00… 2.82e5 NA    G     T       217 NA     FALSE    NA NA    
 4 SRR25848… CP00… 4.33e5 NA    CTTT… CTTT…    64 NA     TRUE     12  1    
 5 SRR25848… CP00… 4.74e5 NA    CCGC  CCGC…   228 NA     TRUE      9  0.9  
 6 SRR25848… CP00… 6.49e5 NA    C     T       210 NA     FALSE    NA NA    
 7 SRR25848… CP00… 1.33e6 NA    C     A       178 NA     FALSE    NA NA    
 8 SRR25848… CP00… 1.73e6 NA    G     A       225 NA     FALSE    NA NA    
 9 SRR25848… CP00… 2.10e6 NA    ACAG… ACAG…    56 NA     TRUE      2  0.667
10 SRR25848… CP00… 2.33e6 NA    AT    ATT     167 NA     TRUE      7  1    
# … with 791 more rows, and 19 more variables: DP <dbl>, VDB <dbl>,
#   RPB <dbl>, MQB <dbl>, BQB <dbl>, MQSB <dbl>, SGB <dbl>, MQ0F <dbl>,
#   ICB <lgl>, HOB <lgl>, AC <dbl>, AN <dbl>, DP4 <chr>, MQ <dbl>,
#   Indiv <chr>, gt_PL <dbl>, gt_GT <dbl>, gt_GT_alleles <chr>,
#   indel_size <int>
…
