…
### Selecting columns and filtering rows

To select columns of a data frame, use `select()`. The first argument to this function is the data frame (`variants`), and the subsequent arguments are the columns to keep.


~~~
select(variants, sample_id, REF, ALT, DP)
~~~
{: .language-r}



~~~
# A tibble: 801 × 4
   sample_id  REF                              ALT                            DP
   <chr>      <chr>                            <chr>                       <dbl>
 1 SRR2584863 T                                G                               4
 2 SRR2584863 G                                T                               6
 3 SRR2584863 G                                T                              10
 4 SRR2584863 CTTTTTTT                         CTTTTTTTT                      12
 5 SRR2584863 CCGC                             CCGCGC                         10
 6 SRR2584863 C                                T                              10
 7 SRR2584863 C                                A                               8
 8 SRR2584863 G                                A                              11
 9 SRR2584863 ACAGCCAGCCAGCCAGCCAGCCAGCCAGCCAG ACAGCCAGCCAGCCAGCCAGCCAGCC…     3
10 SRR2584863 AT                               ATT                             7
# … with 791 more rows
…
To select all columns *except* certain ones, put a "-" in front of
the variable to exclude it.


~~~
select(variants, -CHROM)
~~~
{: .language-r}



~~~
# A tibble: 801 × 28
   sampl…¹    POS ID    REF   ALT    QUAL FILTER INDEL   IDV    IMF    DP    VDB
   <chr>    <dbl> <lgl> <chr> <chr> <dbl> <lgl>  <lgl> <dbl>  <dbl> <dbl>  <dbl>
 1 SRR258… 9.97e3 NA    T     G        91 NA     FALSE    NA NA         4 0.0257
 2 SRR258… 2.63e5 NA    G     T        85 NA     FALSE    NA NA         6 0.0961
 3 SRR258… 2.82e5 NA    G     T       217 NA     FALSE    NA NA        10 0.774 
 4 SRR258… 4.33e5 NA    CTTT… CTTT…    64 NA     TRUE     12  1        12 0.478 
 5 SRR258… 4.74e5 NA    CCGC  CCGC…   228 NA     TRUE      9  0.9      10 0.660 
 6 SRR258… 6.49e5 NA    C     T       210 NA     FALSE    NA NA        10 0.268 
 7 SRR258… 1.33e6 NA    C     A       178 NA     FALSE    NA NA         8 0.624 
 8 SRR258… 1.73e6 NA    G     A       225 NA     FALSE    NA NA        11 0.992 
 9 SRR258… 2.10e6 NA    ACAG… ACAG…    56 NA     TRUE      2  0.667     3 0.902 
10 SRR258… 2.33e6 NA    AT    ATT     167 NA     TRUE      7  1         7 0.568 
# … with 791 more rows, 16 more variables: RPB <dbl>, MQB <dbl>, BQB <dbl>,
#   MQSB <dbl>, SGB <dbl>, MQ0F <dbl>, ICB <lgl>, HOB <lgl>, AC <dbl>,
#   AN <dbl>, DP4 <chr>, MQ <dbl>, Indiv <chr>, gt_PL <dbl>, gt_GT <dbl>,
#   gt_GT_alleles <chr>, and abbreviated variable name ¹​sample_id
~~~
{: .output}

`dplyr` also provides useful functions to select columns based on their names. For instance, `ends_with()` allows you to select columns that ends with specific letters. For instance, if you wanted to select columns that end with the letter "B":


~~~
select(variants, ends_with("B"))
~~~
{: .language-r}



~~~
# A tibble: 801 × 8
      VDB   RPB   MQB   BQB   MQSB    SGB ICB   HOB  
    <dbl> <dbl> <dbl> <dbl>  <dbl>  <dbl> <lgl> <lgl>
 1 0.0257    NA    NA    NA NA     -0.556 NA    NA   
 2 0.0961     1     1     1 NA     -0.591 NA    NA   
 3 0.774     NA    NA    NA  0.975 -0.662 NA    NA   
 4 0.478     NA    NA    NA  1     -0.676 NA    NA   
 5 0.660     NA    NA    NA  0.916 -0.662 NA    NA   
 6 0.268     NA    NA    NA  0.916 -0.670 NA    NA   
 7 0.624     NA    NA    NA  0.901 -0.651 NA    NA   
 8 0.992     NA    NA    NA  1.01  -0.670 NA    NA   
 9 0.902     NA    NA    NA  1     -0.454 NA    NA   
10 0.568     NA    NA    NA  1.01  -0.617 NA    NA   
# … with 791 more rows
…
>>
>> 
>> ~~~
>> # First, we select "POS" and all columns with letter "i". This will contain columns Indiv and FILTER. 
>> variants_subset <- select(variants, POS, contains("i"))
>> # Next, we remove columns Indiv and FILTER
>> variants_result <- select(variants_subset, -Indiv, -FILTER)
>> variants_result
>> ~~~
>> {: .language-r}
>> 
>> 
>> 
>> ~~~
>> # A tibble: 801 × 7
>>        POS sample_id  ID    INDEL   IDV    IMF ICB  
>>      <dbl> <chr>      <lgl> <lgl> <dbl>  <dbl> <lgl>
>>  1    9972 SRR2584863 NA    FALSE    NA NA     NA   
>>  2  263235 SRR2584863 NA    FALSE    NA NA     NA   
>>  3  281923 SRR2584863 NA    FALSE    NA NA     NA   
>>  4  433359 SRR2584863 NA    TRUE     12  1     NA   
>>  5  473901 SRR2584863 NA    TRUE      9  0.9   NA   
>>  6  648692 SRR2584863 NA    FALSE    NA NA     NA   
>>  7 1331794 SRR2584863 NA    FALSE    NA NA     NA   
>>  8 1733343 SRR2584863 NA    FALSE    NA NA     NA   
>>  9 2103887 SRR2584863 NA    TRUE      2  0.667 NA   
>> 10 2333538 SRR2584863 NA    TRUE      7  1     NA   
>> # … with 791 more rows
…
> We can also get to `variants_result` in one line of code:
>
>> ## Alternative solution
>>
>> 
>> ~~~
>> variants_result <- select(variants, POS, contains("i"), -Indiv, -FILTER)
>> variants_result
>> ~~~
>> {: .language-r}
>> 
>> 
>> 
>> ~~~
>> # A tibble: 801 × 7
>>        POS sample_id  ID    INDEL   IDV    IMF ICB  
>>      <dbl> <chr>      <lgl> <lgl> <dbl>  <dbl> <lgl>
>>  1    9972 SRR2584863 NA    FALSE    NA NA     NA   
>>  2  263235 SRR2584863 NA    FALSE    NA NA     NA   
>>  3  281923 SRR2584863 NA    FALSE    NA NA     NA   
>>  4  433359 SRR2584863 NA    TRUE     12  1     NA   
>>  5  473901 SRR2584863 NA    TRUE      9  0.9   NA   
>>  6  648692 SRR2584863 NA    FALSE    NA NA     NA   
>>  7 1331794 SRR2584863 NA    FALSE    NA NA     NA   
>>  8 1733343 SRR2584863 NA    FALSE    NA NA     NA   
>>  9 2103887 SRR2584863 NA    TRUE      2  0.667 NA   
>> 10 2333538 SRR2584863 NA    TRUE      7  1     NA   
>> # … with 791 more rows
…
To choose rows, use `filter()`:


~~~
filter(variants, sample_id == "SRR2584863")
~~~
{: .language-r}



~~~
# A tibble: 25 × 29
   sample…¹ CHROM    POS ID    REF   ALT    QUAL FILTER INDEL   IDV    IMF    DP
   <chr>    <chr>  <dbl> <lgl> <chr> <chr> <dbl> <lgl>  <lgl> <dbl>  <dbl> <dbl>
 1 SRR2584… CP00… 9.97e3 NA    T     G        91 NA     FALSE    NA NA         4
 2 SRR2584… CP00… 2.63e5 NA    G     T        85 NA     FALSE    NA NA         6
 3 SRR2584… CP00… 2.82e5 NA    G     T       217 NA     FALSE    NA NA        10
 4 SRR2584… CP00… 4.33e5 NA    CTTT… CTTT…    64 NA     TRUE     12  1        12
 5 SRR2584… CP00… 4.74e5 NA    CCGC  CCGC…   228 NA     TRUE      9  0.9      10
 6 SRR2584… CP00… 6.49e5 NA    C     T       210 NA     FALSE    NA NA        10
 7 SRR2584… CP00… 1.33e6 NA    C     A       178 NA     FALSE    NA NA         8
 8 SRR2584… CP00… 1.73e6 NA    G     A       225 NA     FALSE    NA NA        11
 9 SRR2584… CP00… 2.10e6 NA    ACAG… ACAG…    56 NA     TRUE      2  0.667     3
10 SRR2584… CP00… 2.33e6 NA    AT    ATT     167 NA     TRUE      7  1         7
# … with 15 more rows, 17 more variables: VDB <dbl>, RPB <dbl>, MQB <dbl>,
#   BQB <dbl>, MQSB <dbl>, SGB <dbl>, MQ0F <dbl>, ICB <lgl>, HOB <lgl>,
#   AC <dbl>, AN <dbl>, DP4 <chr>, MQ <dbl>, Indiv <chr>, gt_PL <dbl>,
#   gt_GT <dbl>, gt_GT_alleles <chr>, and abbreviated variable name ¹​sample_id
…
`filter()` will keep all the rows that match the conditions that are provided. Here are a few examples:


~~~
# rows for which the reference genome has T or G
filter(variants, REF %in% c("T", "G"))
~~~
{: .language-r}



~~~
# A tibble: 340 × 29
   sample_id CHROM    POS ID    REF   ALT    QUAL FILTER INDEL   IDV   IMF    DP
   <chr>     <chr>  <dbl> <lgl> <chr> <chr> <dbl> <lgl>  <lgl> <dbl> <dbl> <dbl>
 1 SRR25848… CP00… 9.97e3 NA    T     G      91   NA     FALSE    NA    NA     4
 2 SRR25848… CP00… 2.63e5 NA    G     T      85   NA     FALSE    NA    NA     6
 3 SRR25848… CP00… 2.82e5 NA    G     T     217   NA     FALSE    NA    NA    10
 4 SRR25848… CP00… 1.73e6 NA    G     A     225   NA     FALSE    NA    NA    11
 5 SRR25848… CP00… 2.62e6 NA    G     T      31.9 NA     FALSE    NA    NA    12
 6 SRR25848… CP00… 3.00e6 NA    G     A     225   NA     FALSE    NA    NA    15
 7 SRR25848… CP00… 3.91e6 NA    G     T     225   NA     FALSE    NA    NA    10
 8 SRR25848… CP00… 9.97e3 NA    T     G     214   NA     FALSE    NA    NA    10
 9 SRR25848… CP00… 1.06e4 NA    G     A     225   NA     FALSE    NA    NA    11
10 SRR25848… CP00… 6.40e4 NA    G     A     225   NA     FALSE    NA    NA    18
# … with 330 more rows, and 17 more variables: VDB <dbl>, RPB <dbl>, MQB <dbl>,
#   BQB <dbl>, MQSB <dbl>, SGB <dbl>, MQ0F <dbl>, ICB <lgl>, HOB <lgl>,
#   AC <dbl>, AN <dbl>, DP4 <chr>, MQ <dbl>, Indiv <chr>, gt_PL <dbl>,
#   gt_GT <dbl>, gt_GT_alleles <chr>
~~~
{: .output}



~~~
# rows with QUAL values greater than or equal to 100
filter(variants, QUAL >= 100)
~~~
{: .language-r}



~~~
# A tibble: 666 × 29
   sample_id CHROM    POS ID    REF   ALT    QUAL FILTER INDEL   IDV   IMF    DP
   <chr>     <chr>  <dbl> <lgl> <chr> <chr> <dbl> <lgl>  <lgl> <dbl> <dbl> <dbl>
 1 SRR25848… CP00… 2.82e5 NA    G     T       217 NA     FALSE    NA  NA      10
 2 SRR25848… CP00… 4.74e5 NA    CCGC  CCGC…   228 NA     TRUE      9   0.9    10
 3 SRR25848… CP00… 6.49e5 NA    C     T       210 NA     FALSE    NA  NA      10
 4 SRR25848… CP00… 1.33e6 NA    C     A       178 NA     FALSE    NA  NA       8
 5 SRR25848… CP00… 1.73e6 NA    G     A       225 NA     FALSE    NA  NA      11
 6 SRR25848… CP00… 2.33e6 NA    AT    ATT     167 NA     TRUE      7   1       7
 7 SRR25848… CP00… 2.41e6 NA    A     C       104 NA     FALSE    NA  NA       9
 8 SRR25848… CP00… 2.45e6 NA    A     C       225 NA     FALSE    NA  NA      20
 9 SRR25848… CP00… 2.67e6 NA    A     T       225 NA     FALSE    NA  NA      19
10 SRR25848… CP00… 3.00e6 NA    G     A       225 NA     FALSE    NA  NA      15
# … with 656 more rows, and 17 more variables: VDB <dbl>, RPB <dbl>, MQB <dbl>,
#   BQB <dbl>, MQSB <dbl>, SGB <dbl>, MQ0F <dbl>, ICB <lgl>, HOB <lgl>,
#   AC <dbl>, AN <dbl>, DP4 <chr>, MQ <dbl>, Indiv <chr>, gt_PL <dbl>,
#   gt_GT <dbl>, gt_GT_alleles <chr>
~~~
{: .output}



~~~
# rows that have TRUE in the column INDEL
filter(variants, INDEL)
~~~
{: .language-r}



~~~
# A tibble: 101 × 29
   sample_id CHROM    POS ID    REF   ALT    QUAL FILTER INDEL   IDV   IMF    DP
   <chr>     <chr>  <dbl> <lgl> <chr> <chr> <dbl> <lgl>  <lgl> <dbl> <dbl> <dbl>
 1 SRR25848… CP00… 4.33e5 NA    CTTT… CTTT…  64   NA     TRUE     12 1        12
 2 SRR25848… CP00… 4.74e5 NA    CCGC  CCGC… 228   NA     TRUE      9 0.9      10
 3 SRR25848… CP00… 2.10e6 NA    ACAG… ACAG…  56   NA     TRUE      2 0.667     3
 4 SRR25848… CP00… 2.33e6 NA    AT    ATT   167   NA     TRUE      7 1         7
 5 SRR25848… CP00… 3.90e6 NA    A     AC     43.4 NA     TRUE      2 1         2
 6 SRR25848… CP00… 4.43e6 NA    TGG   T     228   NA     TRUE     10 1        10
 7 SRR25848… CP00… 1.48e5 NA    AGGGG AGGG… 122   NA     TRUE      8 1         8
 8 SRR25848… CP00… 1.58e5 NA    GTTT… GTTT…  19.5 NA     TRUE      6 1         6
 9 SRR25848… CP00… 1.73e5 NA    CAA   CA    180   NA     TRUE     11 1        11
10 SRR25848… CP00… 1.75e5 NA    GAA   GA    194   NA     TRUE     10 1        10
# … with 91 more rows, and 17 more variables: VDB <dbl>, RPB <dbl>, MQB <dbl>,
#   BQB <dbl>, MQSB <dbl>, SGB <dbl>, MQ0F <dbl>, ICB <lgl>, HOB <lgl>,
#   AC <dbl>, AN <dbl>, DP4 <chr>, MQ <dbl>, Indiv <chr>, gt_PL <dbl>,
#   gt_GT <dbl>, gt_GT_alleles <chr>
~~~
{: .output}



~~~
# rows that don't have missing data in the IDV column
filter(variants, !is.na(IDV))
~~~
{: .language-r}



~~~
# A tibble: 101 × 29
   sample_id CHROM    POS ID    REF   ALT    QUAL FILTER INDEL   IDV   IMF    DP
   <chr>     <chr>  <dbl> <lgl> <chr> <chr> <dbl> <lgl>  <lgl> <dbl> <dbl> <dbl>
 1 SRR25848… CP00… 4.33e5 NA    CTTT… CTTT…  64   NA     TRUE     12 1        12
 2 SRR25848… CP00… 4.74e5 NA    CCGC  CCGC… 228   NA     TRUE      9 0.9      10
 3 SRR25848… CP00… 2.10e6 NA    ACAG… ACAG…  56   NA     TRUE      2 0.667     3
 4 SRR25848… CP00… 2.33e6 NA    AT    ATT   167   NA     TRUE      7 1         7
 5 SRR25848… CP00… 3.90e6 NA    A     AC     43.4 NA     TRUE      2 1         2
 6 SRR25848… CP00… 4.43e6 NA    TGG   T     228   NA     TRUE     10 1        10
 7 SRR25848… CP00… 1.48e5 NA    AGGGG AGGG… 122   NA     TRUE      8 1         8
 8 SRR25848… CP00… 1.58e5 NA    GTTT… GTTT…  19.5 NA     TRUE      6 1         6
 9 SRR25848… CP00… 1.73e5 NA    CAA   CA    180   NA     TRUE     11 1        11
10 SRR25848… CP00… 1.75e5 NA    GAA   GA    194   NA     TRUE     10 1        10
# … with 91 more rows, and 17 more variables: VDB <dbl>, RPB <dbl>, MQB <dbl>,
#   BQB <dbl>, MQSB <dbl>, SGB <dbl>, MQ0F <dbl>, ICB <lgl>, HOB <lgl>,
#   AC <dbl>, AN <dbl>, DP4 <chr>, MQ <dbl>, Indiv <chr>, gt_PL <dbl>,
#   gt_GT <dbl>, gt_GT_alleles <chr>
…
~~~
# using `|` logical operator
filter(variants, sample_id == "SRR2584863", (INDEL | QUAL >= 100))
~~~
{: .language-r}



~~~
# A tibble: 22 × 29
   sample…¹ CHROM    POS ID    REF   ALT    QUAL FILTER INDEL   IDV    IMF    DP
   <chr>    <chr>  <dbl> <lgl> <chr> <chr> <dbl> <lgl>  <lgl> <dbl>  <dbl> <dbl>
 1 SRR2584… CP00… 2.82e5 NA    G     T       217 NA     FALSE    NA NA        10
 2 SRR2584… CP00… 4.33e5 NA    CTTT… CTTT…    64 NA     TRUE     12  1        12
 3 SRR2584… CP00… 4.74e5 NA    CCGC  CCGC…   228 NA     TRUE      9  0.9      10
 4 SRR2584… CP00… 6.49e5 NA    C     T       210 NA     FALSE    NA NA        10
 5 SRR2584… CP00… 1.33e6 NA    C     A       178 NA     FALSE    NA NA         8
 6 SRR2584… CP00… 1.73e6 NA    G     A       225 NA     FALSE    NA NA        11
 7 SRR2584… CP00… 2.10e6 NA    ACAG… ACAG…    56 NA     TRUE      2  0.667     3
 8 SRR2584… CP00… 2.33e6 NA    AT    ATT     167 NA     TRUE      7  1         7
 9 SRR2584… CP00… 2.41e6 NA    A     C       104 NA     FALSE    NA NA         9
10 SRR2584… CP00… 2.45e6 NA    A     C       225 NA     FALSE    NA NA        20
# … with 12 more rows, 17 more variables: VDB <dbl>, RPB <dbl>, MQB <dbl>,
#   BQB <dbl>, MQSB <dbl>, SGB <dbl>, MQ0F <dbl>, ICB <lgl>, HOB <lgl>,
#   AC <dbl>, AN <dbl>, DP4 <chr>, MQ <dbl>, Indiv <chr>, gt_PL <dbl>,
#   gt_GT <dbl>, gt_GT_alleles <chr>, and abbreviated variable name ¹​sample_id
…
> Select all the mutations that occurred between the positions 1e6 (one million)
> and 2e6 (included) that are not indels and have QUAL greater than 200.
>
>> ## Solution
>>
>> 
>> ~~~
>> filter(variants, POS >= 1e6 & POS <= 2e6, !INDEL, QUAL > 200)
>> ~~~
>> {: .language-r}
>> 
>> 
>> 
>> ~~~
>> # A tibble: 77 × 29
>>    sample_id CHROM    POS ID    REF   ALT    QUAL FILTER INDEL   IDV   IMF    DP
>>    <chr>     <chr>  <dbl> <lgl> <chr> <chr> <dbl> <lgl>  <lgl> <dbl> <dbl> <dbl>
>>  1 SRR25848… CP00… 1.73e6 NA    G     A       225 NA     FALSE    NA    NA    11
>>  2 SRR25848… CP00… 1.00e6 NA    A     G       225 NA     FALSE    NA    NA    15
>>  3 SRR25848… CP00… 1.02e6 NA    A     G       225 NA     FALSE    NA    NA    12
>>  4 SRR25848… CP00… 1.06e6 NA    C     T       225 NA     FALSE    NA    NA    17
>>  5 SRR25848… CP00… 1.06e6 NA    A     G       206 NA     FALSE    NA    NA     9
>>  6 SRR25848… CP00… 1.07e6 NA    G     T       225 NA     FALSE    NA    NA    11
>>  7 SRR25848… CP00… 1.07e6 NA    T     C       225 NA     FALSE    NA    NA    12
>>  8 SRR25848… CP00… 1.10e6 NA    C     T       225 NA     FALSE    NA    NA    15
>>  9 SRR25848… CP00… 1.11e6 NA    C     T       212 NA     FALSE    NA    NA     9
>> 10 SRR25848… CP00… 1.11e6 NA    A     G       225 NA     FALSE    NA    NA    14
>> # … with 67 more rows, and 17 more variables: VDB <dbl>, RPB <dbl>, MQB <dbl>,
>> #   BQB <dbl>, MQSB <dbl>, SGB <dbl>, MQ0F <dbl>, ICB <lgl>, HOB <lgl>,
>> #   AC <dbl>, AN <dbl>, DP4 <chr>, MQ <dbl>, Indiv <chr>, gt_PL <dbl>,
>> #   gt_GT <dbl>, gt_GT_alleles <chr>
…
~~~
variants %>%
  filter(sample_id == "SRR2584863") %>%
  select(REF, ALT, DP)
~~~
{: .language-r}



~~~
# A tibble: 25 × 3
   REF                              ALT                                       DP
   <chr>                            <chr>                                  <dbl>
 1 T                                G                                          4
 2 G                                T                                          6
 3 G                                T                                         10
 4 CTTTTTTT                         CTTTTTTTT                                 12
 5 CCGC                             CCGCGC                                    10
 6 C                                T                                         10
 7 C                                A                                          8
 8 G                                A                                         11
 9 ACAGCCAGCCAGCCAGCCAGCCAGCCAGCCAG ACAGCCAGCCAGCCAGCCAGCCAGCCAGCCAGCCAGC…     3
10 AT                               ATT                                        7
# … with 15 more rows
…
This new object includes all of the data from this sample. Let's look at just
the first six rows to confirm it's what we want:


~~~
SRR2584863_variants
~~~
{: .language-r}



~~~
# A tibble: 25 × 3
   REF                              ALT                                       DP
   <chr>                            <chr>                                  <dbl>
 1 T                                G                                          4
 2 G                                T                                          6
 3 G                                T                                         10
 4 CTTTTTTT                         CTTTTTTTT                                 12
 5 CCGC                             CCGCGC                                    10
 6 C                                T                                         10
 7 C                                A                                          8
 8 G                                A                                         11
 9 ACAGCCAGCCAGCCAGCCAGCCAGCCAGCCAG ACAGCCAGCCAGCCAGCCAGCCAGCCAGCCAGCCAGC…     3
10 AT                               ATT                                        7
# … with 15 more rows
…
Let's add a column (`POLPROB`) to our `variants` data frame that shows
the probability of a polymorphism at that site given the data.


~~~
variants %>%
  mutate(POLPROB = 1 - (10 ^ -(QUAL/10)))
~~~
{: .language-r}



~~~
# A tibble: 801 × 30
   sample…¹ CHROM    POS ID    REF   ALT    QUAL FILTER INDEL   IDV    IMF    DP
   <chr>    <chr>  <dbl> <lgl> <chr> <chr> <dbl> <lgl>  <lgl> <dbl>  <dbl> <dbl>
 1 SRR2584… CP00… 9.97e3 NA    T     G        91 NA     FALSE    NA NA         4
 2 SRR2584… CP00… 2.63e5 NA    G     T        85 NA     FALSE    NA NA         6
 3 SRR2584… CP00… 2.82e5 NA    G     T       217 NA     FALSE    NA NA        10
 4 SRR2584… CP00… 4.33e5 NA    CTTT… CTTT…    64 NA     TRUE     12  1        12
 5 SRR2584… CP00… 4.74e5 NA    CCGC  CCGC…   228 NA     TRUE      9  0.9      10
 6 SRR2584… CP00… 6.49e5 NA    C     T       210 NA     FALSE    NA NA        10
 7 SRR2584… CP00… 1.33e6 NA    C     A       178 NA     FALSE    NA NA         8
 8 SRR2584… CP00… 1.73e6 NA    G     A       225 NA     FALSE    NA NA        11
 9 SRR2584… CP00… 2.10e6 NA    ACAG… ACAG…    56 NA     TRUE      2  0.667     3
10 SRR2584… CP00… 2.33e6 NA    AT    ATT     167 NA     TRUE      7  1         7
# … with 791 more rows, 18 more variables: VDB <dbl>, RPB <dbl>, MQB <dbl>,
#   BQB <dbl>, MQSB <dbl>, SGB <dbl>, MQ0F <dbl>, ICB <lgl>, HOB <lgl>,
#   AC <dbl>, AN <dbl>, DP4 <chr>, MQ <dbl>, Indiv <chr>, gt_PL <dbl>,
#   gt_GT <dbl>, gt_GT_alleles <chr>, POLPROB <dbl>, and abbreviated variable
#   name ¹​sample_id
…
